R syntax and the tidyverse
…
select() to select specific columns

slice() to select specific rows based on
position

filter() to select specific rows based on a
condition

3.1.1 Selecting specific
columns

PRRS %>%  # the name of our data
  select(Result, farm_type) # we want to select only the columns Result and farm_type

## # A tibble: 1,353 × 2
##    Result farm_type
##    <chr>  <chr>    
##  1 No     sow farm 
##  2 No     sow farm 
##  3 No     sow farm 
##  4 Yes    sow farm 
##  5 Yes    sow farm 
##  6 Yes    sow farm 
##  7 Yes    sow farm 
##  8 Yes    sow farm 
##  9 Yes    sow farm 
## 10 Yes    sow farm 
## # ℹ 1,343 more rows

We can also specify which columns we DON’T want to show in our
data:

PRRS %>% 
  select(-Age, -id) # with a '-' before the name we will exclude the column from the data

## # A tibble: 1,353 × 6
##    Result Sex   OtherSpecies name                    farm_type County       
##    <chr>  <chr>        <dbl> <chr>                   <chr>     <chr>        
##  1 No     H                0 Armstrong Research Farm sow farm  Pottawattamie
##  2 No     H                0 Armstrong Research Farm sow farm  Pottawattamie
##  3 No     H                0 Armstrong Research Farm sow farm  Pottawattamie
##  4 Yes    H                0 Armstrong Research Farm sow farm  Pottawattamie
##  5 Yes    H                0 Armstrong Research Farm sow farm  Pottawattamie
##  6 Yes    H                0 Armstrong Research Farm sow farm  Pottawattamie
##  7 Yes    M                0 Armstrong Research Farm sow farm  Pottawattamie
##  8 Yes    M                0 Armstrong Research Farm sow farm  Pottawattamie
##  9 Yes    M                0 Armstrong Research Farm sow farm  Pottawattamie
## 10 Yes    H                0 Armstrong Research Farm sow farm  Pottawattamie
## # ℹ 1,343 more rows
…
To create a new variable we can use the function
mutate(). For example, lets create a new variable that will
tell us if the farm type is a sow farm or not. For this we use the
variable farm_type which already contains information for
different farm types

# Creating a new variable
PRRS %>% # name of the data set
  mutate( # mutate is the function we sue to create new variables
    SowFarm = ifelse(farm_type == 'sow farm', 1, 0) # we will create a binary variable where 1 = sow farm, 0 = Any other farm type
  ) 

## # A tibble: 1,353 × 9
##    Result Sex     Age OtherSpecies    id name           farm_type County SowFarm
##    <chr>  <chr> <dbl>        <dbl> <dbl> <chr>          <chr>     <chr>    <dbl>
##  1 No     H        18            0    23 Armstrong Res… sow farm  Potta…       1
##  2 No     H        60            0    23 Armstrong Res… sow farm  Potta…       1
##  3 No     H        60            0    23 Armstrong Res… sow farm  Potta…       1
##  4 Yes    H        36            0    23 Armstrong Res… sow farm  Potta…       1
##  5 Yes    H        50            0    23 Armstrong Res… sow farm  Potta…       1
##  6 Yes    H        16            0    23 Armstrong Res… sow farm  Potta…       1
##  7 Yes    M        15            0    23 Armstrong Res… sow farm  Potta…       1
##  8 Yes    M        22            0    23 Armstrong Res… sow farm  Potta…       1
##  9 Yes    M        30            0    23 Armstrong Res… sow farm  Potta…       1
## 10 Yes    H        14            0    23 Armstrong Res… sow farm  Potta…       1
## # ℹ 1,343 more rows
…
