Introduction to Network analysis
…
We use the function as_tbl_graph() to create the network
from a data.frame. This function takes as arguments:x which
requires the contacts data and assumes that contacts are directed. If we
print the results, we will see a object from the class
tbl_graph, which we will explain:

net <- as_tbl_graph(edge)

net

## # A tbl_graph: 40 nodes and 1611 edges
## #
## # A directed multigraph with 1 component
## #
## # A tibble: 40 × 1
##   name 
##   <chr>
## 1 17   
## 2 12   
## 3 14   
## 4 11   
## 5 7    
## 6 9    
## # ℹ 34 more rows
## #
## # A tibble: 1,611 × 6
##    from    to date    pigs.moved type_orig type_dest
##   <int> <int> <chr>        <int> <chr>     <chr>    
## 1     1     7 8/20/15        160 finisher  sow farm 
## 2     1     7 8/20/15         76 finisher  sow farm 
## 3     1     3 9/11/15        155 finisher  nursery  
## # ℹ 1,608 more rows
…
net <- net %>% 
  mutate(outdegree  = centrality_degree(mode = 'out', loops = F),
         closeness = centrality_closeness(),
         betweenness = centrality_betweenness(),
         Nbs = neighborhood.size(graph = .)
         )

net

## # A tbl_graph: 40 nodes and 1611 edges
## #
## # A directed multigraph with 1 component
## #
## # A tibble: 40 × 10
##   name  name.y      lat  long farm_type indegree outdegree closeness betweenness
##   <chr> <fct>     <dbl> <dbl> <fct>        <dbl>     <dbl>     <dbl>       <dbl>
## 1 17    US Farm …  41.6 -93.6 finisher       821        68    0.04         220. 
## 2 12    Uncle Bi…  41.7 -92.7 nursery         21         5    0.0233        46.1
## 3 14    Western …  42.4 -96.3 nursery        121        15    0.0345        64.7
## 4 11    Loess Hi…  41.7 -95.9 nursery          0         1    0.0217         0  
## 5 7     Kloubec …  41.8 -91.8 GDU            116         3    0.0217        25.2
## 6 9     Kroul Fa…  41.9 -91.5 nursery          0         6    0.0270         0  
## # ℹ 34 more rows
## # ℹ 1 more variable: Nbs <dbl>
## #
## # A tibble: 1,611 × 6
##    from    to date    pigs.moved type_orig type_dest
##   <int> <int> <chr>        <int> <chr>     <chr>    
## 1     1     7 8/20/15        160 finisher  sow farm 
## 2     1     7 8/20/15         76 finisher  sow farm 
## 3     1     3 9/11/15        155 finisher  nursery  
## # ℹ 1,608 more rows
…
