Risk Assessment in R
…
# We need to format the data 
rbt <- rb %>% # The rabies data set
  group_by(State) %>%  # We will group our observations by state
  # Next we will calculate the median, min and max for each of our variables
  summarise_at(.vars = c('HumanPop', 'DogPop', 'Bites', 'VaccinationCov'), # These are the variables
               .funs = c(m = ~median(., na.rm = T), min = ~min(., na.rm = T), max = ~max(., na.rm = T))) %>% # These are the functions 
  # Next we will create new columns to specify the distributions we will use for the RRA
  mutate(DogPop = paste0('Pert(', DogPop_min, ', ', DogPop_m, ', ', DogPop_max, ')'),
         HumanPop = paste0('Pert(', HumanPop_min, ', ', HumanPop_m, ', ', HumanPop_max, ')'),
         Bites = paste0('Pert(', Bites_min, ', ', Bites_m, ', ', Bites_max, ')'),
         VaccinationCov = paste0('Pert(', VaccinationCov_min, ', ', VaccinationCov_m, ', ', VaccinationCov_max, ')'))

rbt

## # A tibble: 32 × 17
##    State    HumanPop_m DogPop_m Bites_m VaccinationCov_m HumanPop_min DogPop_min
##    <chr>         <int>    <int>   <int>            <dbl>        <int>      <int>
##  1 AGUASCA…     872284   229628     359            0.946       830762     207178
##  2 BAJACAL…    2304488   304764     689            0.912      2192229     213802
##  3 BAJACAL…     503531    99893     240            0.921       475014      98523
##  4 CAMPECHE     621328   163240     376            0.985       591801      77553
##  5 CHIAPAS     3201316   344045    1247            0.992      3060969      47769
##  6 CHIHUAH…    2397021   389094    1378            0.959      2310452     213789
##  7 CIUDADD…    6669505  1008103    9370            0.964      6581634     573999
##  8 COAHUIL…    1992735   364392    2330            0.963      1915633     333339
##  9 COLIMA       496085    79303     339            0.988       473790      78264
## 10 DURANGO     1143753   232448    2723            0.955      1104617     193861
## # ℹ 22 more rows
## # ℹ 10 more variables: Bites_min <int>, VaccinationCov_min <dbl>,
## #   HumanPop_max <int>, DogPop_max <int>, Bites_max <int>,
## #   VaccinationCov_max <dbl>, DogPop <chr>, HumanPop <chr>, Bites <chr>,
## #   VaccinationCov <chr>
…
